id,"name","group"
1,"Γλωσσική Διδασκαλία","Νεοελληνική Γλώσσα & Γραμματεία"
2,"Νεοελληνική Λογοτεχνία","Νεοελληνική Γλώσσα & Γραμματεία"
3,"Αρχαία Ελλ. Γλώσσα","Αρχαία Ελλ. Γλώσσα & Γραμματεία"
4,"Αρχαία Ελληνικά Κείμενα από μετάφραση","Αρχαία Ελλ. Γλώσσα & Γραμματεία"
5,"Μαθηματικά",""
6,"Φυσική","Φυσικές Επιστήμες"
7,"Χημεία","Φυσικές Επιστήμες"
8,"Βιολογία","Φυσικές Επιστήμες"
9,"Γεωλογία - Γεωγραφία","Φυσικές Επιστήμες"
10,"Οικιακή Οικονομία",""
11,"Ιστορία",""
12,"Κοινωνική και Πολιτική Αγωγή",""
13,"Θρησκευτικά",""
14,"Αγγλικά",""
15,"Γαλλικά/Γερμανικά/Ιταλικά",""
16,"Φυσική Αγωγή",""
17,"Τεχνολογία","Τεχνολογία Πληροφορική"
18,"Πληροφορική","Τεχνολογία Πληροφορική"
19,"Μουσική","Πολιτισμός και Δραστηριότητες"
20,"Καλλιτεχνικά","Πολιτισμός και Δραστηριότητες"
21,"Αρχαία Ελληνική Γλώσσα","Ελληνική Γλώσσα"
22,"Νεοελληνική Γλώσσα και Λογοτεχνία","Ελληνική Γλώσσα"
23,"Νέα Ελληνική Λογοτεχνία","Ελληνική Γλώσσα"
24,"Άλγεβρα","Μαθηματικά"
25,"Γεωμετρία","Μαθηματικά"
30,"Πολιτική Παιδεία",""
31,"Ξένη Γλώσσα",""
32,"Εισαγωγή στις Αρχές της Επιστήμης των Η/Υ",""
33,"Φιλοσοφία",""
34,"Σύγχρονος Κόσμος: Πολίτης και Δημοκρατία",""
35,"Ερευνητικές Δημιουργικές Δραστηριότητες",""
36,"Βασικές Αρχές Κοινωνικών Επιστημών",""
37,"Εφαρμογές Πληροφορικής",""
38,"Γεωλογία και Διαχείριση Φυσικών Πόρων",""
39,"Ελληνικός και Ευρωπαϊκός Πολιτισμός",""
40,"Εικαστικά",""
41,"Μαθηματικά και Στοιχεία Στατιστικής",""
42,"Ιστορία Κοινωνικών Επιστημών",""
43,"Λατινικά",""
44,"Λογοτεχνία",""
45,"Κοινωνιολογία",""
46,"Πληροφορική",""
47,"Αρχές Οικονομικής Θεωρίας",""
48,"Επιλογής Ξένη Γλώσσα",""
49,"Ελεύθερο Σχέδιο",""
50,"Γραμμικό Σχέδιο",""
51,"Ιστορία της Τέχνης",""
52,"Οικονομία",""
53,"Στοιχεία Θεατρολογίας",""
